^C:\USERS\NAPOL\SOURCE\REPOS\HOMEWORK11\HOMEWORK11\MAIN.CPP
C:\USERS\NAPOL\SOURCE\REPOS\HOMEWORK11\HOMEWORK11\X64\DEBUG\VC143.PDB
C:\USERS\NAPOL\SOURCE\REPOS\HOMEWORK11\HOMEWORK11\X64\DEBUG\VC143.IDB
C:\USERS\NAPOL\SOURCE\REPOS\HOMEWORK11\HOMEWORK11\X64\DEBUG\MAIN.OBJ
