^C:\USERS\NAPOL\SOURCE\REPOS\HOMEWORK11\HOMEWORK11\X64\DEBUG\MAIN.OBJ
C:\USERS\NAPOL\SOURCE\REPOS\HOMEWORK11\X64\DEBUG\HOMEWORK11.EXE
C:\USERS\NAPOL\SOURCE\REPOS\HOMEWORK11\HOMEWORK11\X64\DEBUG\HOMEWORK11.ILK
C:\USERS\NAPOL\SOURCE\REPOS\HOMEWORK11\X64\DEBUG\HOMEWORK11.PDB
